{
    "responseCode": 404,
    "message": "Requested URL (/form/70395163921962zzzz/submissions) is not available!",
    "info": "http://api.jotform.com/docs",
    "limit-left": 9983,
    "duration": "9ms"
}